\relax 
\providecommand\hyper@newdestlabel[2]{}
\providecommand\HyperFirstAtBeginDocument{\AtBeginDocument}
\HyperFirstAtBeginDocument{\ifx\hyper@anchor\@undefined
\global\let\oldcontentsline\contentsline
\gdef\contentsline#1#2#3#4{\oldcontentsline{#1}{#2}{#3}}
\global\let\oldnewlabel\newlabel
\gdef\newlabel#1#2{\newlabelxx{#1}#2}
\gdef\newlabelxx#1#2#3#4#5#6{\oldnewlabel{#1}{{#2}{#3}}}
\AtEndDocument{\ifx\hyper@anchor\@undefined
\let\contentsline\oldcontentsline
\let\newlabel\oldnewlabel
\fi}
\fi}
\global\let\hyper@last\relax 
\gdef\HyperFirstAtBeginDocument#1{#1}
\providecommand\HyField@AuxAddToFields[1]{}
\providecommand\HyField@AuxAddToCoFields[2]{}
\select@language{english}
\@writefile{toc}{\select@language{english}}
\@writefile{lof}{\select@language{english}}
\@writefile{lot}{\select@language{english}}
\newlabel{index::doc}{{}{1}{}{section*.2}{}}
\@writefile{toc}{\contentsline {chapter}{\numberline {1}Homework 1}{2}{chapter.1}}
\@writefile{lof}{\addvspace {10\p@ }}
\@writefile{lot}{\addvspace {10\p@ }}
\newlabel{intro:pthread-library-implementation}{{1}{2}{Homework 1}{chapter.1}{}}
\newlabel{intro::doc}{{1}{2}{Homework 1}{chapter.1}{}}
\newlabel{intro:homework-1}{{1}{2}{Homework 1}{chapter.1}{}}
\@writefile{toc}{\contentsline {section}{\numberline {1.1}Introduction}{2}{section.1.1}}
\newlabel{intro:introduction}{{1.1}{2}{Introduction}{section.1.1}{}}
\@writefile{toc}{\contentsline {chapter}{\numberline {2}Design}{3}{chapter.2}}
\@writefile{lof}{\addvspace {10\p@ }}
\@writefile{lot}{\addvspace {10\p@ }}
\newlabel{design:design}{{2}{3}{Design}{chapter.2}{}}
\newlabel{design::doc}{{2}{3}{Design}{chapter.2}{}}
\@writefile{toc}{\contentsline {section}{\numberline {2.1}scheduler}{3}{section.2.1}}
\newlabel{design:scheduler}{{2.1}{3}{scheduler}{section.2.1}{}}
\@writefile{toc}{\contentsline {section}{\numberline {2.2}get\_next}{3}{section.2.2}}
\newlabel{design:get-next}{{2.2}{3}{get\_next}{section.2.2}{}}
\@writefile{toc}{\contentsline {section}{\numberline {2.3}ready\_insert}{3}{section.2.3}}
\newlabel{design:ready-insert}{{2.3}{3}{ready\_insert}{section.2.3}{}}
\@writefile{toc}{\contentsline {section}{\numberline {2.4}my\_pthread\_t}{3}{section.2.4}}
\newlabel{design:my-pthread-t}{{2.4}{3}{my\_pthread\_t}{section.2.4}{}}
\@writefile{toc}{\contentsline {section}{\numberline {2.5}my\_pthread\_create}{4}{section.2.5}}
\newlabel{design:my-pthread-create}{{2.5}{4}{my\_pthread\_create}{section.2.5}{}}
\@writefile{toc}{\contentsline {section}{\numberline {2.6}setup}{4}{section.2.6}}
\newlabel{design:setup}{{2.6}{4}{setup}{section.2.6}{}}
\@writefile{toc}{\contentsline {section}{\numberline {2.7}run\_thread}{4}{section.2.7}}
\newlabel{design:run-thread}{{2.7}{4}{run\_thread}{section.2.7}{}}
\@writefile{toc}{\contentsline {section}{\numberline {2.8}my\_pthread\_exit}{4}{section.2.8}}
\newlabel{design:my-pthread-exit}{{2.8}{4}{my\_pthread\_exit}{section.2.8}{}}
\@writefile{toc}{\contentsline {section}{\numberline {2.9}my\_pthread\_yield}{5}{section.2.9}}
\newlabel{design:my-pthread-yield}{{2.9}{5}{my\_pthread\_yield}{section.2.9}{}}
\@writefile{toc}{\contentsline {section}{\numberline {2.10}my\_pthread\_join}{5}{section.2.10}}
\newlabel{design:my-pthread-join}{{2.10}{5}{my\_pthread\_join}{section.2.10}{}}
\@writefile{toc}{\contentsline {section}{\numberline {2.11}mutex\_functions}{5}{section.2.11}}
\newlabel{design:mutex-functions}{{2.11}{5}{mutex\_functions}{section.2.11}{}}
\@writefile{toc}{\contentsline {subsection}{\numberline {2.11.1}init}{5}{subsection.2.11.1}}
\newlabel{design:init}{{2.11.1}{5}{init}{subsection.2.11.1}{}}
\@writefile{toc}{\contentsline {subsection}{\numberline {2.11.2}lock}{6}{subsection.2.11.2}}
\newlabel{design:lock}{{2.11.2}{6}{lock}{subsection.2.11.2}{}}
\@writefile{toc}{\contentsline {subsection}{\numberline {2.11.3}unlock}{6}{subsection.2.11.3}}
\newlabel{design:unlock}{{2.11.3}{6}{unlock}{subsection.2.11.3}{}}
\@writefile{toc}{\contentsline {subsection}{\numberline {2.11.4}destroy}{6}{subsection.2.11.4}}
\newlabel{design:destroy}{{2.11.4}{6}{destroy}{subsection.2.11.4}{}}
\@writefile{toc}{\contentsline {section}{\numberline {2.12}start\_timer}{6}{section.2.12}}
\newlabel{design:start-timer}{{2.12}{6}{start\_timer}{section.2.12}{}}
\@writefile{toc}{\contentsline {section}{\numberline {2.13}waitFor}{6}{section.2.13}}
\newlabel{design:waitfor}{{2.13}{6}{waitFor}{section.2.13}{}}
\@writefile{toc}{\contentsline {chapter}{\numberline {3}The Calendar Queue}{7}{chapter.3}}
\@writefile{lof}{\addvspace {10\p@ }}
\@writefile{lot}{\addvspace {10\p@ }}
\newlabel{calendar:the-calendar-queue}{{3}{7}{The Calendar Queue}{chapter.3}{}}
\newlabel{calendar::doc}{{3}{7}{The Calendar Queue}{chapter.3}{}}
\@writefile{toc}{\contentsline {section}{\numberline {3.1}List of queues}{7}{section.3.1}}
\newlabel{calendar:list-of-queues}{{3.1}{7}{List of queues}{section.3.1}{}}
\@writefile{toc}{\contentsline {section}{\numberline {3.2}Prioirty and ticks}{8}{section.3.2}}
\newlabel{calendar:prioirty-and-ticks}{{3.2}{8}{Prioirty and ticks}{section.3.2}{}}
\@writefile{toc}{\contentsline {section}{\numberline {3.3}soft premption}{9}{section.3.3}}
\newlabel{calendar:soft-premption}{{3.3}{9}{soft premption}{section.3.3}{}}
\@writefile{toc}{\contentsline {section}{\numberline {3.4}Tuneing parameters}{9}{section.3.4}}
\newlabel{calendar:tuneing-parameters}{{3.4}{9}{Tuneing parameters}{section.3.4}{}}
\@writefile{toc}{\contentsline {chapter}{\numberline {4}Background infromation on the tools we used}{10}{chapter.4}}
\@writefile{lof}{\addvspace {10\p@ }}
\@writefile{lot}{\addvspace {10\p@ }}
\newlabel{background::doc}{{4}{10}{Background infromation on the tools we used}{chapter.4}{}}
\newlabel{background:background-infromation-on-the-tools-we-used}{{4}{10}{Background infromation on the tools we used}{chapter.4}{}}
\@writefile{toc}{\contentsline {section}{\numberline {4.1}ucontext}{10}{section.4.1}}
\newlabel{background:ucontext}{{4.1}{10}{ucontext}{section.4.1}{}}
\@writefile{toc}{\contentsline {subsection}{\numberline {4.1.1}ucontext\_t struct}{10}{subsection.4.1.1}}
\newlabel{background:ucontext-t-struct}{{4.1.1}{10}{ucontext\_t struct}{subsection.4.1.1}{}}
\@writefile{toc}{\contentsline {subsection}{\numberline {4.1.2}making a context}{10}{subsection.4.1.2}}
\newlabel{background:making-a-context}{{4.1.2}{10}{making a context}{subsection.4.1.2}{}}
\@writefile{toc}{\contentsline {subsection}{\numberline {4.1.3}ucontext references}{11}{subsection.4.1.3}}
\newlabel{background:ucontext-references}{{4.1.3}{11}{ucontext references}{subsection.4.1.3}{}}
\@writefile{toc}{\contentsline {section}{\numberline {4.2}Signal Handling and Timer}{11}{section.4.2}}
\newlabel{background:signal-handling-and-timer}{{4.2}{11}{Signal Handling and Timer}{section.4.2}{}}
\@writefile{toc}{\contentsline {subsection}{\numberline {4.2.1}signal handler references}{11}{subsection.4.2.1}}
\newlabel{background:signal-handler-references}{{4.2.1}{11}{signal handler references}{subsection.4.2.1}{}}
\@writefile{toc}{\contentsline {section}{\numberline {4.3}sys/Queue.h}{11}{section.4.3}}
\newlabel{background:sys-queue-h}{{4.3}{11}{sys/Queue.h}{section.4.3}{}}
\@writefile{toc}{\contentsline {subsection}{\numberline {4.3.1}Types}{11}{subsection.4.3.1}}
\newlabel{background:types}{{4.3.1}{11}{Types}{subsection.4.3.1}{}}
\@writefile{toc}{\contentsline {subsection}{\numberline {4.3.2}Insertion}{12}{subsection.4.3.2}}
\newlabel{background:insertion}{{4.3.2}{12}{Insertion}{subsection.4.3.2}{}}
\@writefile{toc}{\contentsline {subsection}{\numberline {4.3.3}Removal}{12}{subsection.4.3.3}}
\newlabel{background:removal}{{4.3.3}{12}{Removal}{subsection.4.3.3}{}}
\@writefile{toc}{\contentsline {section}{\numberline {4.4}OS References}{12}{section.4.4}}
\newlabel{background:os-references}{{4.4}{12}{OS References}{section.4.4}{}}
\@writefile{toc}{\contentsline {section}{\numberline {4.5}Other References}{12}{section.4.5}}
\newlabel{background:other-references}{{4.5}{12}{Other References}{section.4.5}{}}
\@writefile{toc}{\contentsline {chapter}{\numberline {5}FLow of execution of a thread}{13}{chapter.5}}
\@writefile{lof}{\addvspace {10\p@ }}
\@writefile{lot}{\addvspace {10\p@ }}
\newlabel{runthread:flow-of-execution-of-a-thread}{{5}{13}{FLow of execution of a thread}{chapter.5}{}}
\newlabel{runthread::doc}{{5}{13}{FLow of execution of a thread}{chapter.5}{}}
\@writefile{toc}{\contentsline {section}{\numberline {5.1}Interaction between run and create}{13}{section.5.1}}
\newlabel{runthread:interaction-between-run-and-create}{{5.1}{13}{Interaction between run and create}{section.5.1}{}}
\@writefile{toc}{\contentsline {subsection}{\numberline {5.1.1}my\_pthread\_create}{13}{subsection.5.1.1}}
\newlabel{runthread:my-pthread-create}{{5.1.1}{13}{my\_pthread\_create}{subsection.5.1.1}{}}
\@writefile{toc}{\contentsline {subsection}{\numberline {5.1.2}run\_thread}{13}{subsection.5.1.2}}
\newlabel{runthread:run-thread}{{5.1.2}{13}{run\_thread}{subsection.5.1.2}{}}
\newlabel{runthread:runthreaddiscuss}{{5.1.2}{13}{run\_thread}{subsection.5.1.2}{}}
\@writefile{toc}{\contentsline {subsection}{\numberline {5.1.3}handle\_sigalrm}{13}{subsection.5.1.3}}
\newlabel{runthread:handle-sigalrm}{{5.1.3}{13}{handle\_sigalrm}{subsection.5.1.3}{}}
\@writefile{toc}{\contentsline {chapter}{\numberline {6}Error Handling}{15}{chapter.6}}
\@writefile{lof}{\addvspace {10\p@ }}
\@writefile{lot}{\addvspace {10\p@ }}
\newlabel{error::doc}{{6}{15}{Error Handling}{chapter.6}{}}
\newlabel{error:error-handling}{{6}{15}{Error Handling}{chapter.6}{}}
\@writefile{toc}{\contentsline {section}{\numberline {6.1}debug}{15}{section.6.1}}
\newlabel{error:debug}{{6.1}{15}{debug}{section.6.1}{}}
\@writefile{toc}{\contentsline {section}{\numberline {6.2}info and warn}{15}{section.6.2}}
\newlabel{error:info-and-warn}{{6.2}{15}{info and warn}{section.6.2}{}}
\@writefile{toc}{\contentsline {section}{\numberline {6.3}check and check\_mem}{15}{section.6.3}}
\newlabel{error:check-and-check-mem}{{6.3}{15}{check and check\_mem}{section.6.3}{}}
\@writefile{toc}{\contentsline {chapter}{\numberline {7}Test cases}{17}{chapter.7}}
\@writefile{lof}{\addvspace {10\p@ }}
\@writefile{lot}{\addvspace {10\p@ }}
\newlabel{testcases::doc}{{7}{17}{Test cases}{chapter.7}{}}
\newlabel{testcases:test-cases}{{7}{17}{Test cases}{chapter.7}{}}
\@writefile{toc}{\contentsline {section}{\numberline {7.1}Priority Tests}{17}{section.7.1}}
\newlabel{testcases:priority-tests}{{7.1}{17}{Priority Tests}{section.7.1}{}}
\@writefile{toc}{\contentsline {section}{\numberline {7.2}Join Tests}{17}{section.7.2}}
\newlabel{testcases:join-tests}{{7.2}{17}{Join Tests}{section.7.2}{}}
\@writefile{toc}{\contentsline {section}{\numberline {7.3}Mutex Tests}{17}{section.7.3}}
\newlabel{testcases:mutex-tests}{{7.3}{17}{Mutex Tests}{section.7.3}{}}
\@writefile{toc}{\contentsline {chapter}{\numberline {8}Bugs}{18}{chapter.8}}
\@writefile{lof}{\addvspace {10\p@ }}
\@writefile{lot}{\addvspace {10\p@ }}
\newlabel{bugs::doc}{{8}{18}{Bugs}{chapter.8}{}}
\newlabel{bugs:bugs}{{8}{18}{Bugs}{chapter.8}{}}
\@writefile{toc}{\contentsline {section}{\numberline {8.1}Fixed bugs}{18}{section.8.1}}
\newlabel{bugs:fixed-bugs}{{8.1}{18}{Fixed bugs}{section.8.1}{}}
\@writefile{toc}{\contentsline {subsection}{\numberline {8.1.1}invalid free}{18}{subsection.8.1.1}}
\newlabel{bugs:invalid-free}{{8.1.1}{18}{invalid free}{subsection.8.1.1}{}}
\@writefile{toc}{\contentsline {subsection}{\numberline {8.1.2}queue.h portability}{18}{subsection.8.1.2}}
\newlabel{bugs:queue-h-portability}{{8.1.2}{18}{queue.h portability}{subsection.8.1.2}{}}
\@writefile{toc}{\contentsline {subsection}{\numberline {8.1.3}Join Failures}{18}{subsection.8.1.3}}
\newlabel{bugs:join-failures}{{8.1.3}{18}{Join Failures}{subsection.8.1.3}{}}
\@writefile{toc}{\contentsline {chapter}{\numberline {9}Performance and Profiling}{19}{chapter.9}}
\@writefile{lof}{\addvspace {10\p@ }}
\@writefile{lot}{\addvspace {10\p@ }}
\newlabel{performance:performance-and-profiling}{{9}{19}{Performance and Profiling}{chapter.9}{}}
\newlabel{performance::doc}{{9}{19}{Performance and Profiling}{chapter.9}{}}
\@writefile{toc}{\contentsline {section}{\numberline {9.1}Tools}{19}{section.9.1}}
\newlabel{performance:tools}{{9.1}{19}{Tools}{section.9.1}{}}
\@writefile{lot}{\contentsline {table}{\numberline {9.1}{\ignorespaces test\_mutex performance}}{19}{table.9.1}}
\@writefile{toc}{\contentsline {section}{\numberline {9.2}valgrind}{19}{section.9.2}}
\newlabel{performance:valgrind}{{9.2}{19}{valgrind}{section.9.2}{}}
\@writefile{toc}{\contentsline {subsection}{\numberline {9.2.1}references}{19}{subsection.9.2.1}}
\newlabel{performance:references}{{9.2.1}{19}{references}{subsection.9.2.1}{}}
